10 1000
915401 25562
1 1
22142 22142
883829 101639
25562 915401
266180 820231
10016 600257
480441 130206
690037 332586
22142 129198
134133 888874
807743 489016
691669 971275
535353 213083
569621 852376
487593 189975
595348 883829
567684 169239
101639 71898
299376 530422
73533 468744
292356 337535
781580 419176
877236 135216
889239 591949
994436 97333
328535 748254
291616 163709
763095 371035
752033 979557
184670 483287
212845 74996
49482 877735
600897 275250
572554 491937
820474 180878
261170 306676
207809 264231
195729 133244
782057 58685
847598 56470
211380 127979
863802 880775
374196 158976
102010 617473
879186 996024
821232 452005
898989 768598
752663 464925
286213 205434
930017 574489
398163 74582
865654 764367
642045 985410
765714 264633
561698 463796
14395 802434
626054 462606
496065 591861
869174 653290
51485 532825
391258 927471
247796 877192
376956 492553
21658 881446
967286 839676
711077 840762
128371 564750
19601 130094
110226 780465
288079 901336
722933 130168
435685 35541
923140 73357
286036 422838
383226 863116
681164 888773
292370 494813
562002 14287
596519 983471
603811 712676
41068 352372
77411 701131
762684 320437
717265 188068
639717 343418
318208 369391
683672 437928
407792 770748
654732 60359
179610 141330
383366 452097
684777 889109
849000 897707
740735 603487
618630 977800
747112 637603
90402 340329
942929 752605
9574 564081
316517 594179
737105 409474
403751 711804
312613 608495
444160 629638
82175 360337
121045 639673
957363 497598
801985 447765
720412 649043
766060 243732
61207 370697
737375 658675
10259 411947
9280 785187
58262 222898
43421 275078
845311 229608
131698 571970
609239 685527
92656 944728
51318 287383
21017 202784
410647 321158
531524 977312
434497 40963
426148 405527
376483 589114
837978 483575
197955 948917
21940 392870
495041 60077
167962 74777
54368 329705
230798 473785
893639 426250
414352 121568
192866 329602
781950 309912
398946 850070
901839 973727
374785 703107
965106 247505
257373 468217
447528 139420
107424 401333
550577 201319
332068 886598
797923 779100
461226 367557
15446 654647
542091 747730
852526 802759
311675 855664
368794 286336
77433 949705
659979 715258
725483 182989
508853 67938
90461 527223
158832 674531
93917 512331
265250 636585
278481 202513
203680 352791
807460 899934
186291 949196
186334 943139
803168 302326
921351 345532
96711 853324
297771 705838
470031 461257
76905 719769
52014 484620
822651 727929
518880 12358
632657 303554
503734 272482
274412 904746
584235 798574
805223 61896
205529 361590
124495 20923
977824 372868
80103 381567
978021 742389
269788 636419
876823 351480
156327 680009
924355 365919
976485 259922
430851 23927
646126 684070
596812 147576
921439 478025
983100 530085
116544 338581
945801 166254
399572 875425
500174 681210
60139 367157
260052 957871
708141 615496
909357 61619
806353 410576
477858 21092
274075 163891
