23457 107166
569368 869703
958431 138488
621374 258514
742340 297699
604855 998508
640714 518515
36393 896541
774311 891254
12392 76357
865146 204021
970428 668310
410191 641058
948712 734488
581719 74237
509857 893893
884152 137385
572718 366607
105546 750266
609675 199925
188753 170081
360690 228811
657879 616798
622706 355396
619399 906275
886951 475467
722722 880179
927848 29657
373986 328143
978992 561948
564452 68030
505225 223686
302260 297968
911873 685566
329695 514615
670586 446271
68978 955416
205959 446195
897286 784541
243687 733248
538784 214236
338787 408348
499285 590134
56832 73735
366057 742917
972582 370848
938135 862565
989741 896962
489671 932839
185860 210411
498216 521418
155970 991537
308228 276632
783605 383879
946473 558201
5168 225563
221525 621742
190791 980969
857800 903776
921762 200394
726615 295087
942817 285521
255398 669961
927523 760676
358949 648238
907257 823028
46731 999204
375731 193419
392462 379429
667867 372679
65897 426162
785907 801259
269347 443538
922905 226671
533101 755847
585814 391130
453441 200420
662736 797925
54213 613727
35057 751785
792648 372567
37685 457451
374612 927479
407342 83645
594753 708041
163092 280902
706549 793714
266526 241145
836227 877645
883076 760880
294839 897230
595631 503563
932558 956967
384878 779490
234857 788470
502250 995808
255853 649520
802178 750644
598266 166991
805405 37384
971598 469296
246130 558072
574504 436523
94914 120826
142412 512117
323135 654208
981760 3838
749294 385736
348014 504838
51897 324914
295289 713107
488152 764551
954724 563886
86520 201202
780883 686075
806541 83609
267641 110674
754874 576594
82166 881963
340360 342026
550452 545432
166610 771187
33242 877116
581721 221656
697470 194870
576995 992020
346826 384860
459577 542488
369389 169806
79055 28794
901101 386202
928698 175885
788917 39886
628749 413592
116291 448912
350389 605773
520150 703856
299225 221695
902940 944947
648843 461128
864518 516939
536167 977473
877185 365940
614004 498441
756089 402018
133493 513357
394043 567360
725512 800047
882814 700969
727191 150740
34222 745193
970681 188102
535490 710922
24428 694977
83820 205878
165414 173864
255093 708834
722783 782588
572551 515385
83614 279201
96123 899462
432367 607972
874098 576748
975633 23239
60250 406500
284653 618105
476977 250229
549465 758759
675497 285707
637787 732211
729647 694835
395726 81123
452156 717505
852303 661000
569197 42357
930760 516348
671994 55025
464263 717220
235384 604622
141752 161844
391945 291126
450731 394517
368797 341418
129296 952565
228004 645498
46828 805499
207367 719131
511353 725046
534641 996501
566023 501049
694768 492224
790273 329649
552503 135368
162423 119887
871631 816463
108310 282363
509122 970536
376392 339782
89769 287380
406368 107268
775892 259515
314155 946425
365609 352892
849812 983058
449713 101706
574138 202026
259543 127396
952340 145913
351785 335871
676687 239275
495822 867042
30825 670080
135302 708216
656448 442948
220680 302213
491234 334695
815024 495339
169164 195077
350281 640786
449545 56254
938826 393401
376369 887953
401138 676900
941439 49473
556183 707802
337368 498233
93768 998438
763868 497751
394102 774273
942738 441859
890540 716528
869126 807756
965269 138332
210025 627906
432089 216686
268527 439967
993828 588415
312575 333989
110013 616769
295973 812986
390569 384893
213601 201733
456197 776513
558244 343342
919418 374880
516703 220652
946817 321916
117088 811817
296079 660385
244696 707671
130248 972659
853413 619226
849737 637376
188466 921304
47224 105831
608383 72734
280227 846813
413674 543256
41611 373803
361160 303215
872371 228299
587662 74516
87576 249333
949729 935340
485411 617911
367132 146847
855250 157008
622131 848373
629100 864004
636512 304154
